{
  "title": "Aqua-barn",
  "subtitle": "vissen en toebehoren",
  "message": "Voor garnalen zie onze website [Degarnalenwinkel](https://degarnalenwinkel.nl)",
  "about": {
    "title": "Over ons",
    "text": "Wij zijn aqua-barn.\n\nSinds april 2019 zijn wij gevestigd in Berkenwoude. Wij houden ons voornamelijk bezig met de Kweek en verkoop van diverse tropische aquarium vissen en garnalen. Maar ook kunt u bij ons terecht voor voer, medicijnen en vele andere aquarium artikelen.\n\nBestellingen kunt u plaatsen via e-mail, whatsapp of facebook. Uiteraard kunt u de gewenste artikelen / levende dieren bij ons ophalen op afspraak (ook in de avond uren of in het weekend).\n\nSinds kort heeft Aqua-barn ook **[Degarnalenwinkel.nl](http://www.degarnalenwinkel.nl)** alleen gericht op garnalen en toebehoren"
  },
  "contact": {
    "phone": "+31647291619",
    "email": "info@aqua-barn.nl",
    "instagram": "https://www.instagram.com/aqua_barn",
    "facebook": "https://facebook.com/infoAquabarn/"
  }
}