{
  "title": "Catappa bladeren",
  "active": true,
  "description": "Catappa bladeren worden ook amandelboom bladeren genoemd.    De bladeren zijn van hoge kwaliteit en zijn ongeveer 15 tot 30cm groot.  Naast dat de bladeren een antibacteriële werking hebben zullen de kleuren van de vis ook beter uitkomen.   Word veel gebruikt in garnalen aquariums enbij Betta's.  Inhoud: 10 stuks",
  "price": "10 stuks €3",
  "category": "Diversen",
  "subcategory": "",
  "images": {
    "1": "/uploads/catappa.jpeg"
  }
}