{
  "title": "Gdex Esha",
  "active": true,
  "description": "Esha Gdex\n\nHoe weet ik wanneer ik eSHa gdex® moet gebruiken?\n\nHet stellen van de juiste diagnose is vaak het succes voor een snelle genezing.\n\nVeel visziekten zijn zeer besmettelijk en verspreiden zich snel in het aquariumwater. Het is dan ook van groot belang dat u snel kunt behandelen. Er zijn vroegtijdige signalen die u waarschuwen als er iets niet in orde is met uw vissen.\n\nHuid: de huid is de eerste bescherming en afweersysteem en toont meestal ook de eerste tekenen van een ziekte of gebrek door een infectie. Iedere verkleuring dient u nauwlettend in de gaten te houden.\n\nVinnen: let op de vinnen. Indien deze dicht tegen het lichaam van de vis zijn aangedrukt duidt dit vaak op een ziekte of gebrek. Vooral bij levendbarende vissen.\n\nZwemgedrag: ongebruikelijk zwemgedrag of schommelen kan kenmerkend zijn voor de aanwezigheid van een ziekte.\n\nWelke vissen kunnen behandeld worden met eSHa gdex®?\\\n✔ Tropische vissen\\\n✔ Koudwater vissen\\\n✔ Zeewater vissen\n\neSHa gdex® is veilig voor vissen, planten, garnalen, slakken en filters indien correct gedoseerd. eSHa gdex® geeft uitstekende resultaten, speciaal bij tropische vissen maar kan ook in quarantainebakken bij zeewater vissen gebruikt worden.\n\nToepassingsgebieden:\\\nBij huid- en kieuwwormen (Monogenea zoals Gyrodactylus sp. en Dactylogyrus sp.) en tegen lintwormen (Cestoda). \\[Niet effectief bij de meeste Nematoden].",
  "price": "€10,25",
  "category": "Diversen",
  "subcategory": "",
  "images": {
    "1": "/uploads/gdex.jpg"
  }
}